{
  "required": true,
  "minVersion": "0.8",
  "package": "com.kreezcraft.mobsunscreen",
  "compatibilityLevel": "JAVA_16",
  "mixins": [
  ],
  "client": [
    "mixin/NoxemaMixin"
  ],
  "injectors": {
    "defaultRequire": 1
  }
}
